[gd_scene load_steps=4 format=2]

[ext_resource path="res://Assets/button.png" type="Texture" id=1]
[ext_resource path="res://Scripts/Button.gd" type="Script" id=2]
[ext_resource path="res://Assets/materials/BlueMaterial.tres" type="Material" id=3]

[node name="Button" type="Node2D"]
script = ExtResource( 2 )
color = 1

[node name="Sprite" type="Sprite" parent="."]
material = ExtResource( 3 )
texture = ExtResource( 1 )
centered = false
