[gd_scene load_steps=3 format=2]

[ext_resource path="res://Scripts/LevelMap.gd" type="Script" id=1]
[ext_resource path="res://Assets/Terrain.tres" type="TileSet" id=2]

[node name="Level1" type="TileMap"]
tile_set = ExtResource( 2 )
cell_size = Vector2( 16, 16 )
format = 1
tile_data = PoolIntArray( 0, 0, 0, 1, 0, 0, 2, 0, 0, 3, 0, 0, 4, 0, 0, 5, 0, 0, 6, 0, 0, 7, 0, 0, 8, 0, 0, 9, 0, 0, 10, 0, 0, 11, 0, 0, 12, 0, 0, 13, 0, 0, 14, 0, 0, 15, 0, 0, 65536, 0, 0, 65537, 0, 0, 65538, 0, 0, 65539, 0, 0, 65540, 0, 0, 65541, 0, 0, 65542, 0, 0, 65543, 0, 0, 65544, 0, 0, 65545, 0, 0, 65546, 0, 0, 65547, 0, 0, 65548, 0, 0, 65549, 0, 0, 65550, 0, 0, 65551, 0, 0, 131072, 0, 0, 131073, 0, 0, 131074, 0, 0, 131075, 0, 0, 131076, 0, 0, 131077, 0, 0, 131078, 0, 0, 131079, 0, 0, 131080, 0, 0, 131081, 0, 0, 131082, 0, 0, 131083, 0, 0, 131084, 0, 0, 131085, 0, 0, 131086, 0, 0, 131087, 0, 0, 196608, 0, 0, 196609, 1, 0, 196610, 1, 0, 196611, 2, 0, 196612, 2, 0, 196613, 2, 0, 196614, 2, 0, 196615, 2, 0, 196616, 2, 0, 196617, 0, 0, 196618, 2, 0, 196619, 2, 0, 196620, 2, 0, 196621, 1, 0, 196622, 1, 0, 196623, 0, 0, 262144, 0, 0, 262145, 1, 0, 262146, 1, 0, 262147, 2, 0, 262148, 2, 0, 262149, 2, 0, 262150, 0, 0, 262151, 0, 0, 262152, 0, 0, 262153, 0, 0, 262154, 2, 0, 262155, 2, 0, 262156, 2, 0, 262157, 1, 0, 262158, 1, 0, 262159, 0, 0, 327680, 0, 0, 327681, 1, 0, 327682, 1, 0, 327683, 2, 0, 327684, 2, 0, 327685, 2, 0, 327686, 0, 0, 327687, 2, 0, 327688, 2, 0, 327689, 2, 0, 327690, 2, 0, 327691, 2, 0, 327692, 2, 0, 327693, 1, 0, 327694, 1, 0, 327695, 0, 0, 393216, 0, 0, 393217, 0, 0, 393218, 0, 0, 393219, 0, 0, 393220, 0, 0, 393221, 0, 0, 393222, 0, 0, 393223, 0, 0, 393224, 0, 0, 393225, 0, 0, 393226, 0, 0, 393227, 0, 0, 393228, 0, 0, 393229, 0, 0, 393230, 0, 0, 393231, 0, 0, 458752, 0, 0, 458753, 0, 0, 458754, 0, 0, 458755, 0, 0, 458756, 0, 0, 458757, 0, 0, 458758, 0, 0, 458759, 0, 0, 458760, 0, 0, 458761, 0, 0, 458762, 0, 0, 458763, 0, 0, 458764, 0, 0, 458765, 0, 0, 458766, 0, 0, 458767, 0, 0, 524288, 0, 0, 524289, 0, 0, 524290, 0, 0, 524291, 0, 0, 524292, 0, 0, 524293, 0, 0, 524294, 0, 0, 524295, 0, 0, 524296, 0, 0, 524297, 0, 0, 524298, 0, 0, 524299, 0, 0, 524300, 0, 0, 524301, 0, 0, 524302, 0, 0, 524303, 0, 0 )
script = ExtResource( 1 )
camera_path = NodePath("../Camera2D")

[node name="StartA" type="Node2D" parent="."]
position = Vector2( 128, 48 )

[node name="StartB" type="Node2D" parent="."]
position = Vector2( 112, 80 )

[node name="Obstacles" type="Node" parent="."]

[node name="Triggers" type="Node" parent="."]
