[gd_scene load_steps=6 format=2]

[ext_resource path="res://Scripts/CharacterController.gd" type="Script" id=1]
[ext_resource path="res://Assets/blob2.png" type="Texture" id=2]
[ext_resource path="res://Assets/blob1.png" type="Texture" id=3]
[ext_resource path="res://Assets/materials/BlobMaterialA.tres" type="Material" id=4]

[sub_resource type="SpriteFrames" id=1]
animations = [ {
"frames": [ ExtResource( 3 ), ExtResource( 2 ) ],
"loop": true,
"name": "default",
"speed": 2.0
} ]

[node name="CharacterA" type="Node2D"]
position = Vector2( 32, 64 )
z_index = 1
script = ExtResource( 1 )
startName = "StartA"

[node name="AnimatedSprite" type="AnimatedSprite" parent="."]
material = ExtResource( 4 )
frames = SubResource( 1 )
frame = 1
playing = true
centered = false
